<svg width="1024" height="1024" viewBox="-1,-1,1024,1024" style="max-width: 100%; height: auto; font: 12px sans-serif;" text-anchor="middle" xmlns="http://www.w3.org/2000/svg"><g><g transform="translate(337.8938277241392,526.1399053276847)"><title>idna
232,270,788</title><circle fill-opacity="0.7" fill="#4e79a7" r="230.61446951659923"></circle><text clip-path="circle(230.61446951659923)"><tspan x="0" y="-0.15000000000000002em">idna</tspan><tspan x="0" y="0.85em" fill-opacity="0.7">232,270,788</tspan></text></g><g transform="translate(742.0625480560335,526.1399053276847)"><title>encoding_rs
127,142,981</title><circle fill-opacity="0.7" fill="#f28e2c" r="170.62216607054432"></circle><text clip-path="circle(170.62216607054432)"><tspan x="0" y="-0.15000000000000002em">encoding_rs</tspan><tspan x="0" y="0.85em" fill-opacity="0.7">127,142,981</tspan></text></g><g transform="translate(587.3064846363177,770.04109827215)"><title>axum
58,061,200</title><circle fill-opacity="0.7" fill="#e15759" r="115.30078390783453"></circle><text clip-path="circle(115.30078390783453)"><tspan x="0" y="-0.15000000000000002em">axum</tspan><tspan x="0" y="0.85em" fill-opacity="0.7">58,061,200</tspan></text></g><g transform="translate(587.1145730018328,283.89395529387343)"><title>axum-core
56,766,377</title><circle fill-opacity="0.7" fill="#76b7b2" r="114.00787339646715"></circle><text clip-path="circle(114.00787339646715)"><tspan x="0" y="-0.15000000000000002em">axum-core</tspan><tspan x="0" y="0.85em" fill-opacity="0.7">56,766,377</tspan></text></g><g transform="translate(383.93841506136994,187.97299031997989)"><title>tungstenite
50,696,829</title><circle fill-opacity="0.7" fill="#59a14f" r="107.74066558270461"></circle><text clip-path="circle(107.74066558270461)"><tspan x="0" y="-0.15000000000000002em">tungstenite</tspan><tspan x="0" y="0.85em" fill-opacity="0.7">50,696,829</tspan></text></g><g transform="translate(387.31025421315235,855.0922037473581)"><title>tokio-tungstenite
42,888,485</title><circle fill-opacity="0.7" fill="#edc949" r="99.09679505219015"></circle><text clip-path="circle(99.09679505219015)"><tspan x="0" y="-0.15000000000000002em">tokio-tungstenite</tspan><tspan x="0" y="0.85em" fill-opacity="0.7">42,888,485</tspan></text></g><g transform="translate(779.609882534203,279.8329149114712)"><title>ureq
24,959,979</title><circle fill-opacity="0.7" fill="#af7aa1" r="75.59818416038034"></circle><text clip-path="circle(75.59818416038034)"><tspan x="0" y="-0.15000000000000002em">ureq</tspan><tspan x="0" y="0.85em" fill-opacity="0.7">24,959,979</tspan></text></g><g transform="translate(782.1998269025898,773.1393608187391)"><title>handlebars
25,682,864</title><circle fill-opacity="0.7" fill="#ff9da7" r="76.68509894026113"></circle><text clip-path="circle(76.68509894026113)"><tspan x="0" y="-0.15000000000000002em">handlebars</tspan><tspan x="0" y="0.85em" fill-opacity="0.7">25,682,864</tspan></text></g><g transform="translate(219.42903355417707,808.1135748197104)"><title>actix-web
22,830,562</title><circle fill-opacity="0.7" fill="#9c755f" r="72.30154160411341"></circle><text clip-path="circle(72.30154160411341)"><tspan x="0" y="-0.15000000000000002em">actix-web</tspan><tspan x="0" y="0.85em" fill-opacity="0.7">22,830,562</tspan></text></g><g transform="translate(215.6979395848362,249.828975735457)"><title>bytestring
20,539,875</title><circle fill-opacity="0.7" fill="#bab0ab" r="68.57852726991584"></circle><text clip-path="circle(68.57852726991584)"><tspan x="0" y="-0.15000000000000002em">bytestring</tspan><tspan x="0" y="0.85em" fill-opacity="0.7">20,539,875</tspan></text></g><g transform="translate(514.6869055960007,904.5214553038203)"><title>web-time
5,229,135</title><circle fill-opacity="0.7" fill="#4e79a7" r="34.6022375480464"></circle><text clip-path="circle(34.6022375480464)"><tspan x="0" y="-0.15000000000000002em">web-time</tspan><tspan x="0" y="0.85em" fill-opacity="0.7">5,229,135</tspan></text></g><g transform="translate(532.601369796482,125.47997789306328)"><title>tiny_http
11,178,174</title><circle fill-opacity="0.7" fill="#f28e2c" r="50.591166010840055"></circle><text clip-path="circle(50.591166010840055)"><tspan x="0" y="-0.15000000000000002em">tiny_http</tspan><tspan x="0" y="0.85em" fill-opacity="0.7">11,178,174</tspan></text></g><g transform="translate(864.0461668673067,356.41280002667315)"><title>axum-extra
5,491,850</title><circle fill-opacity="0.7" fill="#e15759" r="35.46080493943916"></circle><text clip-path="circle(35.46080493943916)"><tspan x="0" y="-0.15000000000000002em">axum-extra</tspan><tspan x="0" y="0.85em" fill-opacity="0.7">5,491,850</tspan></text></g><g transform="translate(870.6800973583502,694.8059731039963)"><title>graphql_client
6,492,369</title><circle fill-opacity="0.7" fill="#76b7b2" r="38.555900774998264"></circle><text clip-path="circle(38.555900774998264)"><tspan x="0" y="-0.15000000000000002em">graphql_client</tspan><tspan x="0" y="0.85em" fill-opacity="0.7">6,492,369</tspan></text></g><g transform="translate(708.3068599353343,188.77864287576438)"><title>graphql-introspection-query
6,017,819</title><circle fill-opacity="0.7" fill="#59a14f" r="37.12007258890563"></circle><text clip-path="circle(37.12007258890563)"><tspan x="0" y="-0.15000000000000002em">graphql-introspection-query</tspan><tspan x="0" y="0.85em" fill-opacity="0.7">6,017,819</tspan></text></g><g transform="translate(710.9499868913678,870.7704730394421)"><title>rust-embed
7,430,630</title><circle fill-opacity="0.7" fill="#edc949" r="41.24792201169549"></circle><text clip-path="circle(41.24792201169549)"><tspan x="0" y="-0.15000000000000002em">rust-embed</tspan><tspan x="0" y="0.85em" fill-opacity="0.7">7,430,630</tspan></text></g><g transform="translate(143.538536151546,720.0635285416997)"><title>rust-embed-impl
7,344,536</title><circle fill-opacity="0.7" fill="#af7aa1" r="41.008269048529264"></circle><text clip-path="circle(41.008269048529264)"><tspan x="0" y="-0.15000000000000002em">rust-embed-impl</tspan><tspan x="0" y="0.85em" fill-opacity="0.7">7,344,536</tspan></text></g><g transform="translate(142.2391738045468,334.3226749750529)"><title>rust-embed-utils
7,146,237</title><circle fill-opacity="0.7" fill="#ff9da7" r="40.450879048799976"></circle><text clip-path="circle(40.450879048799976)"><tspan x="0" y="-0.15000000000000002em">rust-embed-utils</tspan><tspan x="0" y="0.85em" fill-opacity="0.7">7,146,237</tspan></text></g><g transform="translate(581.3225564596574,918.7589980832283)"><title>axum-server
4,090,880</title><circle fill-opacity="0.7" fill="#9c755f" r="30.60536944717657"></circle><text clip-path="circle(30.60536944717657)"><tspan x="0" y="-0.15000000000000002em">axum-server</tspan><tspan x="0" y="0.85em" fill-opacity="0.7">4,090,880</tspan></text></g><g transform="translate(613.2123760156766,140.78615793293835)"><title>local-ip-address
3,554,391</title><circle fill-opacity="0.7" fill="#bab0ab" r="28.528034859468832"></circle><text clip-path="circle(28.528034859468832)"><tspan x="0" y="-0.15000000000000002em">local-ip-address</tspan><tspan x="0" y="0.85em" fill-opacity="0.7">3,554,391</tspan></text></g><g transform="translate(678.0277654625907,117.46532059092272)"><title>actix-cors
6,116,468</title><circle fill-opacity="0.7" fill="#4e79a7" r="37.423087082808884"></circle><text clip-path="circle(37.423087082808884)"><tspan x="0" y="-0.15000000000000002em">actix-cors</tspan><tspan x="0" y="0.85em" fill-opacity="0.7">6,116,468</tspan></text></g><g transform="translate(652.2430495062055,928.3108362173168)"><title>async-tungstenite
6,314,269</title><circle fill-opacity="0.7" fill="#f28e2c" r="38.02338667586353"></circle><text clip-path="circle(38.02338667586353)"><tspan x="0" y="-0.15000000000000002em">async-tungstenite</tspan><tspan x="0" y="0.85em" fill-opacity="0.7">6,314,269</tspan></text></g><g transform="translate(911.3046523308146,408.9720783454666)"><title>rouille
4,553,172</title><circle fill-opacity="0.7" fill="#e15759" r="32.28838213301047"></circle><text clip-path="circle(32.28838213301047)"><tspan x="0" y="-0.15000000000000002em">rouille</tspan><tspan x="0" y="0.85em" fill-opacity="0.7">4,553,172</tspan></text></g><g transform="translate(904.0689618710231,638.7591506257882)"><title>salvo_core
2,463,586</title><circle fill-opacity="0.7" fill="#76b7b2" r="23.750519853607063"></circle><text clip-path="circle(23.750519853607063)"><tspan x="0" y="-0.15000000000000002em">salvo_core</tspan><tspan x="0" y="0.85em" fill-opacity="0.7">2,463,586</tspan></text></g><g transform="translate(471.79549514859957,947.7071952933106)"><title>salvo_extra
2,377,480</title><circle fill-opacity="0.7" fill="#59a14f" r="23.33177030897326"></circle><text clip-path="circle(23.33177030897326)"><tspan x="0" y="-0.15000000000000002em">salvo_extra</tspan><tspan x="0" y="0.85em" fill-opacity="0.7">2,377,480</tspan></text></g><g transform="translate(268.17688179771835,893.5969320724533)"><title>salvo
2,345,123</title><circle fill-opacity="0.7" fill="#edc949" r="23.172456164237673"></circle><text clip-path="circle(23.172456164237673)"><tspan x="0" y="-0.15000000000000002em">salvo</tspan><tspan x="0" y="0.85em" fill-opacity="0.7">2,345,123</tspan></text></g><g transform="translate(117.47588815057117,658.0497882477114)"><title>salvo_macros
2,376,612</title><circle fill-opacity="0.7" fill="#af7aa1" r="23.327510793556385"></circle><text clip-path="circle(23.327510793556385)"><tspan x="0" y="-0.15000000000000002em">salvo_macros</tspan><tspan x="0" y="0.85em" fill-opacity="0.7">2,376,612</tspan></text></g><g transform="translate(81.78396045809825,405.1220654134424)"><title>stdweb
10,794,710</title><circle fill-opacity="0.7" fill="#ff9da7" r="49.71583591521099"></circle><text clip-path="circle(49.71583591521099)"><tspan x="0" y="-0.15000000000000002em">stdweb</tspan><tspan x="0" y="0.85em" fill-opacity="0.7">10,794,710</tspan></text></g><g transform="translate(251.86673189734074,161.37745076255925)"><title>actix-multipart
2,526,132</title><circle fill-opacity="0.7" fill="#9c755f" r="24.050121591643887"></circle><text clip-path="circle(24.050121591643887)"><tspan x="0" y="-0.15000000000000002em">actix-multipart</tspan><tspan x="0" y="0.85em" fill-opacity="0.7">2,526,132</tspan></text></g><g transform="translate(774.0568483837859,174.14091940836454)"><title>bcrypt
3,256,758</title><circle fill-opacity="0.7" fill="#bab0ab" r="27.307503660736984"></circle><text clip-path="circle(27.307503660736984)"><tspan x="0" y="-0.15000000000000002em">bcrypt</tspan><tspan x="0" y="0.85em" fill-opacity="0.7">3,256,758</tspan></text></g><g transform="translate(891.9278396609561,289.394447314284)"><title>rocket
5,106,457</title><circle fill-opacity="0.7" fill="#4e79a7" r="34.19393610433959"></circle><text clip-path="circle(34.19393610433959)"><tspan x="0" y="-0.15000000000000002em">rocket</tspan><tspan x="0" y="0.85em" fill-opacity="0.7">5,106,457</tspan></text></g><g transform="translate(465.9149045225624,68.66561456817624)"><title>rocket_codegen
5,073,549</title><circle fill-opacity="0.7" fill="#f28e2c" r="34.083578491574386"></circle><text clip-path="circle(34.083578491574386)"><tspan x="0" y="-0.15000000000000002em">rocket_codegen</tspan><tspan x="0" y="0.85em" fill-opacity="0.7">5,073,549</tspan></text></g><g transform="translate(772.7630712114546,869.936342153823)"><title>actix-multipart-derive
1,358,798</title><circle fill-opacity="0.7" fill="#e15759" r="17.638705358062438"></circle><text clip-path="circle(17.638705358062438)"><tspan x="0" y="-0.15000000000000002em">actix-multipart-derive</tspan><tspan x="0" y="0.85em" fill-opacity="0.7">1,358,798</tspan></text></g><g transform="translate(894.1993300861466,765.1335534263196)"><title>rocket_http
4,660,890</title><circle fill-opacity="0.7" fill="#76b7b2" r="32.66808545287663"></circle><text clip-path="circle(32.66808545287663)"><tspan x="0" y="-0.15000000000000002em">rocket_http</tspan><tspan x="0" y="0.85em" fill-opacity="0.7">4,660,890</tspan></text></g><g transform="translate(913.1126077175022,600.2600644236376)"><title>network-interface
722,773</title><circle fill-opacity="0.7" fill="#59a14f" r="12.864420177182009"></circle><text clip-path="circle(12.864420177182009)"><tspan x="0" y="-0.15000000000000002em">network-interface</tspan><tspan x="0" y="0.85em" fill-opacity="0.7">722,773</tspan></text></g><g transform="translate(928.2364224758405,464.28516544145947)"><title>jwt
2,235,836</title><circle fill-opacity="0.7" fill="#edc949" r="22.62607532082557"></circle><text clip-path="circle(22.62607532082557)"><tspan x="0" y="-0.15000000000000002em">jwt</tspan><tspan x="0" y="0.85em" fill-opacity="0.7">2,235,836</tspan></text></g><g transform="translate(538.2846359336073,978.3235219407079)"><title>awc
6,969,857</title><circle fill-opacity="0.7" fill="#af7aa1" r="39.94856560486706"></circle><text clip-path="circle(39.94856560486706)"><tspan x="0" y="-0.15000000000000002em">awc</tspan><tspan x="0" y="0.85em" fill-opacity="0.7">6,969,857</tspan></text></g><g transform="translate(92.92388822580381,611.9110953230984)"><title>actix-web-actors
2,953,470</title><circle fill-opacity="0.7" fill="#ff9da7" r="26.004920962828777"></circle><text clip-path="circle(26.004920962828777)"><tspan x="0" y="-0.15000000000000002em">actix-web-actors</tspan><tspan x="0" y="0.85em" fill-opacity="0.7">2,953,470</tspan></text></g><g transform="translate(84.74266512484206,481.26393464582685)"><title>actix-web-httpauth
2,422,453</title><circle fill-opacity="0.7" fill="#9c755f" r="23.55141124988213"></circle><text clip-path="circle(23.55141124988213)"><tspan x="0" y="-0.15000000000000002em">actix-web-httpauth</tspan><tspan x="0" y="0.85em" fill-opacity="0.7">2,422,453</tspan></text></g><g transform="translate(960.808761261793,558.5311953113231)"><title>stdweb-internal-macros
9,885,953</title><circle fill-opacity="0.7" fill="#bab0ab" r="47.577161378142044"></circle><text clip-path="circle(47.577161378142044)"><tspan x="0" y="-0.15000000000000002em">stdweb-internal-macros</tspan><tspan x="0" y="0.85em" fill-opacity="0.7">9,885,953</tspan></text></g><g transform="translate(610.5445650626457,61.275774453606914)"><title>stdweb-internal-runtime
9,836,717</title><circle fill-opacity="0.7" fill="#4e79a7" r="47.45853684788954"></circle><text clip-path="circle(47.45853684788954)"><tspan x="0" y="-0.15000000000000002em">stdweb-internal-runtime</tspan><tspan x="0" y="0.85em" fill-opacity="0.7">9,836,717</tspan></text></g><g transform="translate(51.84508778268321,547.4919741601257)"><title>stdweb-derive
9,839,463</title><circle fill-opacity="0.7" fill="#f28e2c" r="47.46516060500283"></circle><text clip-path="circle(47.46516060500283)"><tspan x="0" y="-0.15000000000000002em">stdweb-derive</tspan><tspan x="0" y="0.85em" fill-opacity="0.7">9,839,463</tspan></text></g><g transform="translate(968.7291769370238,487.395963358909)"><title>google-storage1
1,938,063</title><circle fill-opacity="0.7" fill="#e15759" r="21.065569345903228"></circle><text clip-path="circle(21.065569345903228)"><tspan x="0" y="-0.15000000000000002em">google-storage1</tspan><tspan x="0" y="0.85em" fill-opacity="0.7">1,938,063</tspan></text></g><g transform="translate(920.4082001652307,674.1976868399385)"><title>actix-web-lab
665,180</title><circle fill-opacity="0.7" fill="#76b7b2" r="12.341241406829068"></circle><text clip-path="circle(12.341241406829068)"><tspan x="0" y="-0.15000000000000002em">actix-web-lab</tspan><tspan x="0" y="0.85em" fill-opacity="0.7">665,180</tspan></text></g><g transform="translate(477.7502139791166,992.9851865868666)"><title>poem
1,644,391</title><circle fill-opacity="0.7" fill="#59a14f" r="19.404023941581272"></circle><text clip-path="circle(19.404023941581272)"><tspan x="0" y="-0.15000000000000002em">poem</tspan><tspan x="0" y="0.85em" fill-opacity="0.7">1,644,391</tspan></text></g><g transform="translate(921.5487432091359,355.6107441222549)"><title>poem-derive
1,595,816</title><circle fill-opacity="0.7" fill="#edc949" r="19.115279993010752"></circle><text clip-path="circle(19.115279993010752)"><tspan x="0" y="-0.15000000000000002em">poem-derive</tspan><tspan x="0" y="0.85em" fill-opacity="0.7">1,595,816</tspan></text></g><g transform="translate(428.3780649691897,975.7399800637892)"><title>browserslist-rs
2,821,434</title><circle fill-opacity="0.7" fill="#af7aa1" r="25.41699502995689"></circle><text clip-path="circle(25.41699502995689)"><tspan x="0" y="-0.15000000000000002em">browserslist-rs</tspan><tspan x="0" y="0.85em" fill-opacity="0.7">2,821,434</tspan></text></g><g transform="translate(137.73171089243857,279.28839483109607)"><title>goose
611,789</title><circle fill-opacity="0.7" fill="#ff9da7" r="11.835594797447898"></circle><text clip-path="circle(11.835594797447898)"><tspan x="0" y="-0.15000000000000002em">goose</tspan><tspan x="0" y="0.85em" fill-opacity="0.7">611,789</tspan></text></g><g transform="translate(132.6739054632161,779.2207158008098)"><title>actix-session
1,147,060</title><circle fill-opacity="0.7" fill="#9c755f" r="16.206242156974778"></circle><text clip-path="circle(16.206242156974778)"><tspan x="0" y="-0.15000000000000002em">actix-session</tspan><tspan x="0" y="0.85em" fill-opacity="0.7">1,147,060</tspan></text></g><g transform="translate(941.8965900544741,621.2513153763206)"><title>linkify
982,684</title><circle fill-opacity="0.7" fill="#bab0ab" r="15.000170610448933"></circle><text clip-path="circle(15.000170610448933)"><tspan x="0" y="-0.15000000000000002em">linkify</tspan><tspan x="0" y="0.85em" fill-opacity="0.7">982,684</tspan></text></g><g transform="translate(605.1510873015611,965.9569451949938)"><title>juniper
1,632,631</title><circle fill-opacity="0.7" fill="#4e79a7" r="19.334514691863642"></circle><text clip-path="circle(19.334514691863642)"><tspan x="0" y="-0.15000000000000002em">juniper</tspan><tspan x="0" y="0.85em" fill-opacity="0.7">1,632,631</tspan></text></g><g transform="translate(711.8186946408558,933.8187360666798)"><title>tide
1,555,824</title><circle fill-opacity="0.7" fill="#f28e2c" r="18.87424071274307"></circle><text clip-path="circle(18.87424071274307)"><tspan x="0" y="-0.15000000000000002em">tide</tspan><tspan x="0" y="0.85em" fill-opacity="0.7">1,555,824</tspan></text></g><g transform="translate(98.36305718022783,689.5423943814906)"><title>actix-web-lab-derive
488,780</title><circle fill-opacity="0.7" fill="#e15759" r="10.579032948625818"></circle><text clip-path="circle(10.579032948625818)"><tspan x="0" y="-0.15000000000000002em">actix-web-lab-derive</tspan><tspan x="0" y="0.85em" fill-opacity="0.7">488,780</tspan></text></g><g transform="translate(724.5500855371831,140.0161265280687)"><title>google-apis-common
562,081</title><circle fill-opacity="0.7" fill="#76b7b2" r="11.34458749042608"></circle><text clip-path="circle(11.34458749042608)"><tspan x="0" y="-0.15000000000000002em">google-apis-common</tspan><tspan x="0" y="0.85em" fill-opacity="0.7">562,081</tspan></text></g><g transform="translate(817.8038575102914,192.1814374054705)"><title>yew
1,274,267</title><circle fill-opacity="0.7" fill="#59a14f" r="17.081243129032543"></circle><text clip-path="circle(17.081243129032543)"><tspan x="0" y="-0.15000000000000002em">yew</tspan><tspan x="0" y="0.85em" fill-opacity="0.7">1,274,267</tspan></text></g><g transform="translate(748.426507335833,143.34053808383356)"><title>ehttp
422,022</title><circle fill-opacity="0.7" fill="#edc949" r="9.83007433293449"></circle><text clip-path="circle(9.83007433293449)"><tspan x="0" y="-0.15000000000000002em">ehttp</tspan><tspan x="0" y="0.85em" fill-opacity="0.7">422,022</tspan></text></g><g transform="translate(74.72395110475054,653.7687157814868)"><title>yew-macro
1,218,918</title><circle fill-opacity="0.7" fill="#af7aa1" r="16.706154805785243"></circle><text clip-path="circle(16.706154805785243)"><tspan x="0" y="-0.15000000000000002em">yew-macro</tspan><tspan x="0" y="0.85em" fill-opacity="0.7">1,218,918</tspan></text></g><g transform="translate(805.3111178061076,862.6111869322938)"><title>actix-web-prom
714,587</title><circle fill-opacity="0.7" fill="#ff9da7" r="12.791362647679547"></circle><text clip-path="circle(12.791362647679547)"><tspan x="0" y="-0.15000000000000002em">actix-web-prom</tspan><tspan x="0" y="0.85em" fill-opacity="0.7">714,587</tspan></text></g><g transform="translate(949.4548460803524,434.7400602265095)"><title>chardetng
510,994</title><circle fill-opacity="0.7" fill="#9c755f" r="10.816759074168335"></circle><text clip-path="circle(10.816759074168335)"><tspan x="0" y="-0.15000000000000002em">chardetng</tspan><tspan x="0" y="0.85em" fill-opacity="0.7">510,994</tspan></text></g><g transform="translate(929.0326011165873,322.0716832713175)"><title>actix-http-test
662,518</title><circle fill-opacity="0.7" fill="#bab0ab" r="12.31652229414757"></circle><text clip-path="circle(12.31652229414757)"><tspan x="0" y="-0.15000000000000002em">actix-http-test</tspan><tspan x="0" y="0.85em" fill-opacity="0.7">662,518</tspan></text></g><g transform="translate(294.73896859932995,917.3625794902152)"><title>tracing-web
397,269</title><circle fill-opacity="0.7" fill="#4e79a7" r="9.537435080590512"></circle><text clip-path="circle(9.537435080590512)"><tspan x="0" y="-0.15000000000000002em">tracing-web</tspan><tspan x="0" y="0.85em" fill-opacity="0.7">397,269</tspan></text></g><g transform="translate(863.515772017784,251.9297963158799)"><title>actix-test
427,495</title><circle fill-opacity="0.7" fill="#f28e2c" r="9.893609755502933"></circle><text clip-path="circle(9.893609755502933)"><tspan x="0" y="-0.15000000000000002em">actix-test</tspan><tspan x="0" y="0.85em" fill-opacity="0.7">427,495</tspan></text></g><g transform="translate(757.8941775850029,895.1916282245261)"><title>google-drive3
333,342</title><circle fill-opacity="0.7" fill="#e15759" r="8.736435494090065"></circle><text clip-path="circle(8.736435494090065)"><tspan x="0" y="-0.15000000000000002em">google-drive3</tspan><tspan x="0" y="0.85em" fill-opacity="0.7">333,342</tspan></text></g><g transform="translate(585.821745455574,985.4543536007432)"><title>build_html
117,564</title><circle fill-opacity="0.7" fill="#76b7b2" r="5.1883161658713135"></circle><text clip-path="circle(5.1883161658713135)"><tspan x="0" y="-0.15000000000000002em">build_html</tspan><tspan x="0" y="0.85em" fill-opacity="0.7">117,564</tspan></text></g><g transform="translate(865.2030261416871,795.4101146394207)"><title>a11ywatch_cli
174,546</title><circle fill-opacity="0.7" fill="#59a14f" r="6.321850284812801"></circle><text clip-path="circle(6.321850284812801)"><tspan x="0" y="-0.15000000000000002em">a11ywatch_cli</tspan><tspan x="0" y="0.85em" fill-opacity="0.7">174,546</tspan></text></g><g transform="translate(79.84712817456841,333.4856265258361)"><title>rocket_contrib
1,579,066</title><circle fill-opacity="0.7" fill="#edc949" r="19.014696483094607"></circle><text clip-path="circle(19.014696483094607)"><tspan x="0" y="-0.15000000000000002em">rocket_contrib</tspan><tspan x="0" y="0.85em" fill-opacity="0.7">1,579,066</tspan></text></g><g transform="translate(924.0787143410298,701.5623017106792)"><title>actix-identity
664,654</title><circle fill-opacity="0.7" fill="#af7aa1" r="12.3363609407925"></circle><text clip-path="circle(12.3363609407925)"><tspan x="0" y="-0.15000000000000002em">actix-identity</tspan><tspan x="0" y="0.85em" fill-opacity="0.7">664,654</tspan></text></g><g transform="translate(937.2582107794219,655.0025183077931)"><title>grass
460,493</title><circle fill-opacity="0.7" fill="#ff9da7" r="10.268352584866186"></circle><text clip-path="circle(10.268352584866186)"><tspan x="0" y="-0.15000000000000002em">grass</tspan><tspan x="0" y="0.85em" fill-opacity="0.7">460,493</tspan></text></g><g transform="translate(921.8754830224232,727.6952857964824)"><title>yew-router
524,354</title><circle fill-opacity="0.7" fill="#9c755f" r="10.957249452472285"></circle><text clip-path="circle(10.957249452472285)"><tspan x="0" y="-0.15000000000000002em">yew-router</tspan><tspan x="0" y="0.85em" fill-opacity="0.7">524,354</tspan></text></g><g transform="translate(276.4680916074982,134.80439392911245)"><title>hoot
372,104</title><circle fill-opacity="0.7" fill="#bab0ab" r="9.23041921136358"></circle><text clip-path="circle(9.23041921136358)"><tspan x="0" y="-0.15000000000000002em">hoot</tspan><tspan x="0" y="0.85em" fill-opacity="0.7">372,104</tspan></text></g><g transform="translate(956.7743712164151,643.9653195291975)"><title>hootbin
371,308</title><circle fill-opacity="0.7" fill="#4e79a7" r="9.220541129868257"></circle><text clip-path="circle(9.220541129868257)"><tspan x="0" y="-0.15000000000000002em">hootbin</tspan><tspan x="0" y="0.85em" fill-opacity="0.7">371,308</tspan></text></g><g transform="translate(234.90030579201732,889.331102739847)"><title>grass_compiler
242,033</title><circle fill-opacity="0.7" fill="#f28e2c" r="7.444345966109491"></circle><text clip-path="circle(7.444345966109491)"><tspan x="0" y="-0.15000000000000002em">grass_compiler</tspan><tspan x="0" y="0.85em" fill-opacity="0.7">242,033</tspan></text></g><g transform="translate(55.29967975220262,461.04776366312336)"><title>trunk
372,216</title><circle fill-opacity="0.7" fill="#e15759" r="9.231808243961593"></circle><text clip-path="circle(9.231808243961593)"><tspan x="0" y="-0.15000000000000002em">trunk</tspan><tspan x="0" y="0.85em" fill-opacity="0.7">372,216</tspan></text></g><g transform="translate(425.03625725137,79.54227326713482)"><title>tide-serve-dir-macro
121,997</title><circle fill-opacity="0.7" fill="#76b7b2" r="5.285229274072265"></circle><text clip-path="circle(5.285229274072265)"><tspan x="0" y="-0.15000000000000002em">tide-serve-dir-macro</tspan><tspan x="0" y="0.85em" fill-opacity="0.7">121,997</tspan></text></g><g transform="translate(74.6727250524828,684.1844604292809)"><title>paperclip
507,296</title><circle fill-opacity="0.7" fill="#59a14f" r="10.777548234564167"></circle><text clip-path="circle(10.777548234564167)"><tspan x="0" y="-0.15000000000000002em">paperclip</tspan><tspan x="0" y="0.85em" fill-opacity="0.7">507,296</tspan></text></g><g transform="translate(391.6473018619609,966.5505045464165)"><title>hyper-staticfile
395,300</title><circle fill-opacity="0.7" fill="#edc949" r="9.51377033887673"></circle><text clip-path="circle(9.51377033887673)"><tspan x="0" y="-0.15000000000000002em">hyper-staticfile</tspan><tspan x="0" y="0.85em" fill-opacity="0.7">395,300</tspan></text></g><g transform="translate(219.06935172438187,171.15030831455476)"><title>sauron
228,944</title><circle fill-opacity="0.7" fill="#af7aa1" r="7.240255453213503"></circle><text clip-path="circle(7.240255453213503)"><tspan x="0" y="-0.15000000000000002em">sauron</tspan><tspan x="0" y="0.85em" fill-opacity="0.7">228,944</tspan></text></g><g transform="translate(938.1248009240587,377.9614793609834)"><title>actix-ws
145,870</title><circle fill-opacity="0.7" fill="#ff9da7" r="5.7792601937710115"></circle><text clip-path="circle(5.7792601937710115)"><tspan x="0" y="-0.15000000000000002em">actix-ws</tspan><tspan x="0" y="0.85em" fill-opacity="0.7">145,870</tspan></text></g><g transform="translate(520.0600540479032,53.955897473106916)"><title>ws
1,591,936</title><circle fill-opacity="0.7" fill="#9c755f" r="19.09202780633397"></circle><text clip-path="circle(19.09202780633397)"><tspan x="0" y="-0.15000000000000002em">ws</tspan><tspan x="0" y="0.85em" fill-opacity="0.7">1,591,936</tspan></text></g><g transform="translate(821.6871759453179,848.7811745145785)"><title>ewebsock
142,455</title><circle fill-opacity="0.7" fill="#bab0ab" r="5.7112096762739535"></circle><text clip-path="circle(5.7112096762739535)"><tspan x="0" y="-0.15000000000000002em">ewebsock</tspan><tspan x="0" y="0.85em" fill-opacity="0.7">142,455</tspan></text></g><g transform="translate(745.1978261463316,906.9056442306405)"><title>sledgehammer_bindgen
137,264</title><circle fill-opacity="0.7" fill="#4e79a7" r="5.606187019048027"></circle><text clip-path="circle(5.606187019048027)"><tspan x="0" y="-0.15000000000000002em">sledgehammer_bindgen</tspan><tspan x="0" y="0.85em" fill-opacity="0.7">137,264</tspan></text></g><g transform="translate(95.49268844012585,708.3487729726354)"><title>actix-web-thiserror
132,741</title><circle fill-opacity="0.7" fill="#f28e2c" r="5.513048317716347"></circle><text clip-path="circle(5.513048317716347)"><tspan x="0" y="-0.15000000000000002em">actix-web-thiserror</tspan><tspan x="0" y="0.85em" fill-opacity="0.7">132,741</tspan></text></g><g transform="translate(58.19161754128345,604.180298472718)"><title>sauron-core
192,860</title><circle fill-opacity="0.7" fill="#e15759" r="6.6452349026552975"></circle><text clip-path="circle(6.6452349026552975)"><tspan x="0" y="-0.15000000000000002em">sauron-core</tspan><tspan x="0" y="0.85em" fill-opacity="0.7">192,860</tspan></text></g><g transform="translate(728.767947580056,915.0097804405087)"><title>sledgehammer_bindgen_macro
53,890</title><circle fill-opacity="0.7" fill="#76b7b2" r="3.51271850044925"></circle><text clip-path="circle(3.51271850044925)"><tspan x="0" y="-0.15000000000000002em">sledgehammer_bindgen_macro</tspan><tspan x="0" y="0.85em" fill-opacity="0.7">53,890</tspan></text></g><g transform="translate(830.8093935419051,213.6850910160357)"><title>salvo-cors
114,370</title><circle fill-opacity="0.7" fill="#59a14f" r="5.117352301507949"></circle><text clip-path="circle(5.117352301507949)"><tspan x="0" y="-0.15000000000000002em">salvo-cors</tspan><tspan x="0" y="0.85em" fill-opacity="0.7">114,370</tspan></text></g><g transform="translate(852.5133742637702,235.9951298158951)"><title>devserver_lib
186,706</title><circle fill-opacity="0.7" fill="#edc949" r="6.538353444410838"></circle><text clip-path="circle(6.538353444410838)"><tspan x="0" y="-0.15000000000000002em">devserver_lib</tspan><tspan x="0" y="0.85em" fill-opacity="0.7">186,706</tspan></text></g><g transform="translate(308.7504377506579,927.6656317641848)"><title>aws-smithy-http-server
105,816</title><circle fill-opacity="0.7" fill="#af7aa1" r="4.922264267694289"></circle><text clip-path="circle(4.922264267694289)"><tspan x="0" y="-0.15000000000000002em">aws-smithy-http-server</tspan><tspan x="0" y="0.85em" fill-opacity="0.7">105,816</tspan></text></g><g transform="translate(32.231043290964294,481.3656895434259)"><title>parity-ws
1,507,147</title><circle fill-opacity="0.7" fill="#ff9da7" r="18.57663563813859"></circle><text clip-path="circle(18.57663563813859)"><tspan x="0" y="-0.15000000000000002em">parity-ws</tspan><tspan x="0" y="0.85em" fill-opacity="0.7">1,507,147</tspan></text></g><g transform="translate(556.7579199900186,72.63393407807303)"><title>salvo-csrf
91,700</title><circle fill-opacity="0.7" fill="#9c755f" r="4.582198766366365"></circle><text clip-path="circle(4.582198766366365)"><tspan x="0" y="-0.15000000000000002em">salvo-csrf</tspan><tspan x="0" y="0.85em" fill-opacity="0.7">91,700</tspan></text></g><g transform="translate(858.9656331729818,807.7862145857507)"><title>salvo-rate-limiter
92,619</title><circle fill-opacity="0.7" fill="#bab0ab" r="4.605102488518441"></circle><text clip-path="circle(4.605102488518441)"><tspan x="0" y="-0.15000000000000002em">salvo-rate-limiter</tspan><tspan x="0" y="0.85em" fill-opacity="0.7">92,619</tspan></text></g><g transform="translate(122.32482176870485,290.8096556129673)"><title>viewy
87,288</title><circle fill-opacity="0.7" fill="#4e79a7" r="4.4706073481381665"></circle><text clip-path="circle(4.4706073481381665)"><tspan x="0" y="-0.15000000000000002em">viewy</tspan><tspan x="0" y="0.85em" fill-opacity="0.7">87,288</tspan></text></g><g transform="translate(449.8704072186592,1005.1621123751629)"><title>juniper_subscriptions
285,620</title><circle fill-opacity="0.7" fill="#f28e2c" r="8.086927760645466"></circle><text clip-path="circle(8.086927760645466)"><tspan x="0" y="-0.15000000000000002em">juniper_subscriptions</tspan><tspan x="0" y="0.85em" fill-opacity="0.7">285,620</tspan></text></g><g transform="translate(140.4889200439884,260.29647423069093)"><title>salvo-cache
85,452</title><circle fill-opacity="0.7" fill="#e15759" r="4.4233405035801585"></circle><text clip-path="circle(4.4233405035801585)"><tspan x="0" y="-0.15000000000000002em">salvo-cache</tspan><tspan x="0" y="0.85em" fill-opacity="0.7">85,452</tspan></text></g><g transform="translate(971.6124566556764,450.2259879083252)"><title>router
770,687</title><circle fill-opacity="0.7" fill="#76b7b2" r="13.283981830171626"></circle><text clip-path="circle(13.283981830171626)"><tspan x="0" y="-0.15000000000000002em">router</tspan><tspan x="0" y="0.85em" fill-opacity="0.7">770,687</tspan></text></g><g transform="translate(773.199787784077,894.1740754952043)"><title>salvo-proxy
58,852</title><circle fill-opacity="0.7" fill="#59a14f" r="3.6708773087472393"></circle><text clip-path="circle(3.6708773087472393)"><tspan x="0" y="-0.15000000000000002em">salvo-proxy</tspan><tspan x="0" y="0.85em" fill-opacity="0.7">58,852</tspan></text></g><g transform="translate(949.8470744687079,416.8722361099251)"><title>salvo-flash
74,252</title><circle fill-opacity="0.7" fill="#edc949" r="4.12328481115254"></circle><text clip-path="circle(4.12328481115254)"><tspan x="0" y="-0.15000000000000002em">salvo-flash</tspan><tspan x="0" y="0.85em" fill-opacity="0.7">74,252</tspan></text></g><g transform="translate(742.0848941300259,924.9183263341931)"><title>nickel
414,444</title><circle fill-opacity="0.7" fill="#af7aa1" r="9.741418121475125"></circle><text clip-path="circle(9.741418121475125)"><tspan x="0" y="-0.15000000000000002em">nickel</tspan><tspan x="0" y="0.85em" fill-opacity="0.7">414,444</tspan></text></g><g transform="translate(842.7526823155654,228.83836776819663)"><title>datafusion-server
30,275</title><circle fill-opacity="0.7" fill="#ff9da7" r="2.632881616376329"></circle><text clip-path="circle(2.632881616376329)"><tspan x="0" y="-0.15000000000000002em">datafusion-server</tspan><tspan x="0" y="0.85em" fill-opacity="0.7">30,275</tspan></text></g><g transform="translate(795.3486199847798,879.651875701858)"><title>poem-lambda
70,430</title><circle fill-opacity="0.7" fill="#9c755f" r="4.015763244804354"></circle><text clip-path="circle(4.015763244804354)"><tspan x="0" y="-0.15000000000000002em">poem-lambda</tspan><tspan x="0" y="0.85em" fill-opacity="0.7">70,430</tspan></text></g><g transform="translate(632.6144243568829,970.4914392543449)"><title>actix-web-static-files
135,428</title><circle fill-opacity="0.7" fill="#bab0ab" r="5.568567503580109"></circle><text clip-path="circle(5.568567503580109)"><tspan x="0" y="-0.15000000000000002em">actix-web-static-files</tspan><tspan x="0" y="0.85em" fill-opacity="0.7">135,428</tspan></text></g></g></svg>
