<svg width="1024" height="1024" viewBox="-1,-1,1024,1024" style="max-width: 100%; height: auto; font: 12px sans-serif;" text-anchor="middle" xmlns="http://www.w3.org/2000/svg"><g><g transform="translate(374.69249678761616,495.48328898318044)"><title>tokio
207,895,570</title><circle fill-opacity="0.7" fill="#4e79a7" r="130.3350868371324"></circle><text clip-path="circle(130.3350868371324)"><tspan x="0" y="-0.15000000000000002em">tokio</tspan><tspan x="0" y="0.85em" fill-opacity="0.7">207,895,570</tspan></text></g><g transform="translate(638.7122051004222,495.48328898318044)"><title>mio
209,309,174</title><circle fill-opacity="0.7" fill="#f28e2c" r="130.7774485182072"></circle><text clip-path="circle(130.7774485182072)"><tspan x="0" y="-0.15000000000000002em">mio</tspan><tspan x="0" y="0.85em" fill-opacity="0.7">209,309,174</tspan></text></g><g transform="translate(506.28492825459665,706.7687962132757)"><title>h2
163,748,146</title><circle fill-opacity="0.7" fill="#e15759" r="115.6716481833817"></circle><text clip-path="circle(115.6716481833817)"><tspan x="0" y="-0.15000000000000002em">h2</tspan><tspan x="0" y="0.85em" fill-opacity="0.7">163,748,146</tspan></text></g><g transform="translate(506.27615251948936,278.0464199690913)"><title>tracing
178,913,229</title><circle fill-opacity="0.7" fill="#76b7b2" r="120.90936908551338"></circle><text clip-path="circle(120.90936908551338)"><tspan x="0" y="-0.15000000000000002em">tracing</tspan><tspan x="0" y="0.85em" fill-opacity="0.7">178,913,229</tspan></text></g><g transform="translate(746.9764420181009,728.3003091820983)"><title>futures
185,376,244</title><circle fill-opacity="0.7" fill="#59a14f" r="123.07384457690009"></circle><text clip-path="circle(123.07384457690009)"><tspan x="0" y="-0.15000000000000002em">futures</tspan><tspan x="0" y="0.85em" fill-opacity="0.7">185,376,244</tspan></text></g><g transform="translate(277.94168204823757,718.7411305351067)"><title>async-trait
148,294,203</title><circle fill-opacity="0.7" fill="#edc949" r="110.07807221067897"></circle><text clip-path="circle(110.07807221067897)"><tspan x="0" y="-0.15000000000000002em">async-trait</tspan><tspan x="0" y="0.85em" fill-opacity="0.7">148,294,203</tspan></text></g><g transform="translate(737.8920412952061,275.28838019612635)"><title>want
142,261,407</title><circle fill-opacity="0.7" fill="#af7aa1" r="107.81576726803677"></circle><text clip-path="circle(107.81576726803677)"><tspan x="0" y="-0.15000000000000002em">want</tspan><tspan x="0" y="0.85em" fill-opacity="0.7">142,261,407</tspan></text></g><g transform="translate(305.58529397187056,296.19005958962725)"><title>tower
73,872,708</title><circle fill-opacity="0.7" fill="#ff9da7" r="77.69279362973842"></circle><text clip-path="circle(77.69279362973842)"><tspan x="0" y="-0.15000000000000002em">tower</tspan><tspan x="0" y="0.85em" fill-opacity="0.7">73,872,708</tspan></text></g><g transform="translate(193.50496379520172,399.47236990421715)"><title>tonic
63,111,686</title><circle fill-opacity="0.7" fill="#9c755f" r="71.81143730512318"></circle><text clip-path="circle(71.81143730512318)"><tspan x="0" y="-0.15000000000000002em">tonic</tspan><tspan x="0" y="0.85em" fill-opacity="0.7">63,111,686</tspan></text></g><g transform="translate(181.2556733754061,561.8861035148667)"><title>futures-lite
62,171,579</title><circle fill-opacity="0.7" fill="#bab0ab" r="71.27458163792498"></circle><text clip-path="circle(71.27458163792498)"><tspan x="0" y="-0.15000000000000002em">futures-lite</tspan><tspan x="0" y="0.85em" fill-opacity="0.7">62,171,579</tspan></text></g><g transform="translate(817.7304574608002,424.8100537780856)"><title>atomic-waker
42,283,093</title><circle fill-opacity="0.7" fill="#4e79a7" r="58.77898768854898"></circle><text clip-path="circle(58.77898768854898)"><tspan x="0" y="-0.15000000000000002em">atomic-waker</tspan><tspan x="0" y="0.85em" fill-opacity="0.7">42,283,093</tspan></text></g><g transform="translate(818.0549091092738,559.8438669167191)"><title>opentelemetry
39,563,037</title><circle fill-opacity="0.7" fill="#f28e2c" r="56.85694740929618"></circle><text clip-path="circle(56.85694740929618)"><tspan x="0" y="-0.15000000000000002em">opentelemetry</tspan><tspan x="0" y="0.85em" fill-opacity="0.7">39,563,037</tspan></text></g><g transform="translate(359.1768609874622,163.12396423094458)"><title>tonic-build
48,346,961</title><circle fill-opacity="0.7" fill="#e15759" r="62.852610208029844"></circle><text clip-path="circle(62.852610208029844)"><tspan x="0" y="-0.15000000000000002em">tonic-build</tspan><tspan x="0" y="0.85em" fill-opacity="0.7">48,346,961</tspan></text></g><g transform="translate(394.69247859681604,842.8684304932669)"><title>tower-http
40,352,098</title><circle fill-opacity="0.7" fill="#76b7b2" r="57.42113701758915"></circle><text clip-path="circle(57.42113701758915)"><tspan x="0" y="-0.15000000000000002em">tower-http</tspan><tspan x="0" y="0.85em" fill-opacity="0.7">40,352,098</tspan></text></g><g transform="translate(608.3464199800537,857.9464551689058)"><title>waker-fn
49,854,817</title><circle fill-opacity="0.7" fill="#59a14f" r="63.82521571286396"></circle><text clip-path="circle(63.82521571286396)"><tspan x="0" y="-0.15000000000000002em">waker-fn</tspan><tspan x="0" y="0.85em" fill-opacity="0.7">49,854,817</tspan></text></g><g transform="translate(630.1908002485211,153.09269977125444)"><title>async-compression
33,298,351</title><circle fill-opacity="0.7" fill="#edc949" r="52.16150236338736"></circle><text clip-path="circle(52.16150236338736)"><tspan x="0" y="-0.15000000000000002em">async-compression</tspan><tspan x="0" y="0.85em" fill-opacity="0.7">33,298,351</tspan></text></g><g transform="translate(92.18923031871134,473.91458860154387)"><title>tracing-opentelemetry
31,838,641</title><circle fill-opacity="0.7" fill="#af7aa1" r="51.0053801865679"></circle><text clip-path="circle(51.0053801865679)"><tspan x="0" y="-0.15000000000000002em">tracing-opentelemetry</tspan><tspan x="0" y="0.85em" fill-opacity="0.7">31,838,641</tspan></text></g><g transform="translate(912.7358309021304,493.7562506314594)"><title>blocking
37,969,843</title><circle fill-opacity="0.7" fill="#ff9da7" r="55.70037624502172"></circle><text clip-path="circle(55.70037624502172)"><tspan x="0" y="-0.15000000000000002em">blocking</tspan><tspan x="0" y="0.85em" fill-opacity="0.7">37,969,843</tspan></text></g><g transform="translate(161.10540029299028,260.1695310806793)"><title>tracing-futures
57,094,545</title><circle fill-opacity="0.7" fill="#9c755f" r="68.30241133714027"></circle><text clip-path="circle(68.30241133714027)"><tspan x="0" y="-0.15000000000000002em">tracing-futures</tspan><tspan x="0" y="0.85em" fill-opacity="0.7">57,094,545</tspan></text></g><g transform="translate(877.9859982389969,338.99075860133235)"><title>opentelemetry-semantic-conventions
22,812,340</title><circle fill-opacity="0.7" fill="#bab0ab" r="43.17413507694944"></circle><text clip-path="circle(43.17413507694944)"><tspan x="0" y="-0.15000000000000002em">opentelemetry-semantic-conventions</tspan><tspan x="0" y="0.85em" fill-opacity="0.7">22,812,340</tspan></text></g><g transform="translate(455.13109648303833,125.10166357447969)"><title>multer
17,167,196</title><circle fill-opacity="0.7" fill="#4e79a7" r="37.453155251889704"></circle><text clip-path="circle(37.453155251889704)"><tspan x="0" y="-0.15000000000000002em">multer</tspan><tspan x="0" y="0.85em" fill-opacity="0.7">17,167,196</tspan></text></g><g transform="translate(495.83451769187167,869.1958976191777)"><title>actix-rt
23,892,133</title><circle fill-opacity="0.7" fill="#f28e2c" r="44.18411798244469"></circle><text clip-path="circle(44.18411798244469)"><tspan x="0" y="-0.15000000000000002em">actix-rt</tspan><tspan x="0" y="0.85em" fill-opacity="0.7">23,892,133</tspan></text></g><g transform="translate(891.681019334654,635.5953490851974)"><title>async-global-executor
25,752,949</title><circle fill-opacity="0.7" fill="#e15759" r="45.872479150834224"></circle><text clip-path="circle(45.872479150834224)"><tspan x="0" y="-0.15000000000000002em">async-global-executor</tspan><tspan x="0" y="0.85em" fill-opacity="0.7">25,752,949</tspan></text></g><g transform="translate(130.35849308226574,667.6496538005646)"><title>actix-web
22,830,562</title><circle fill-opacity="0.7" fill="#76b7b2" r="43.19137491399752"></circle><text clip-path="circle(43.19137491399752)"><tspan x="0" y="-0.15000000000000002em">actix-web</tspan><tspan x="0" y="0.85em" fill-opacity="0.7">22,830,562</tspan></text></g><g transform="translate(542.9045829788465,945.7517778779581)"><title>actix-http
22,395,084</title><circle fill-opacity="0.7" fill="#59a14f" r="42.777468082993"></circle><text clip-path="circle(42.777468082993)"><tspan x="0" y="-0.15000000000000002em">actix-http</tspan><tspan x="0" y="0.85em" fill-opacity="0.7">22,395,084</tspan></text></g><g transform="translate(540.6609269251041,115.99475588003446)"><title>actix-server
21,427,245</title><circle fill-opacity="0.7" fill="#edc949" r="41.842911490338196"></circle><text clip-path="circle(41.842911490338196)"><tspan x="0" y="-0.15000000000000002em">actix-server</tspan><tspan x="0" y="0.85em" fill-opacity="0.7">21,427,245</tspan></text></g><g transform="translate(253.10801283142922,184.82830485572225)"><title>actix-codec
22,112,702</title><circle fill-opacity="0.7" fill="#af7aa1" r="42.506919708027894"></circle><text clip-path="circle(42.506919708027894)"><tspan x="0" y="-0.15000000000000002em">actix-codec</tspan><tspan x="0" y="0.85em" fill-opacity="0.7">22,112,702</tspan></text></g><g transform="translate(485.8695879334931,48.46047603408584)"><title>actix-utils
21,810,284</title><circle fill-opacity="0.7" fill="#ff9da7" r="42.21525222609408"></circle><text clip-path="circle(42.21525222609408)"><tspan x="0" y="-0.15000000000000002em">actix-utils</tspan><tspan x="0" y="0.85em" fill-opacity="0.7">21,810,284</tspan></text></g><g transform="translate(296.90681059653593,872.3712955001558)"><title>actix-service
21,394,661</title><circle fill-opacity="0.7" fill="#9c755f" r="41.81108453007999"></circle><text clip-path="circle(41.81108453007999)"><tspan x="0" y="-0.15000000000000002em">actix-service</tspan><tspan x="0" y="0.85em" fill-opacity="0.7">21,394,661</tspan></text></g><g transform="translate(718.2867029996228,129.83525329515032)"><title>deadpool
15,901,027</title><circle fill-opacity="0.7" fill="#bab0ab" r="36.04552169651786"></circle><text clip-path="circle(36.04552169651786)"><tspan x="0" y="-0.15000000000000002em">deadpool</tspan><tspan x="0" y="0.85em" fill-opacity="0.7">15,901,027</tspan></text></g><g transform="translate(714.2278273424704,897.4002628084992)"><title>async-std
26,190,877</title><circle fill-opacity="0.7" fill="#4e79a7" r="46.26086494380382"></circle><text clip-path="circle(46.26086494380382)"><tspan x="0" y="-0.15000000000000002em">async-std</tspan><tspan x="0" y="0.85em" fill-opacity="0.7">26,190,877</tspan></text></g><g transform="translate(182.9435074343973,163.46416553805966)"><title>tonic-reflection
9,547,543</title><circle fill-opacity="0.7" fill="#f28e2c" r="27.930874894622715"></circle><text clip-path="circle(27.930874894622715)"><tspan x="0" y="-0.15000000000000002em">tonic-reflection</tspan><tspan x="0" y="0.85em" fill-opacity="0.7">9,547,543</tspan></text></g><g transform="translate(946.9977669959931,577.2363889832957)"><title>deadpool-runtime
12,243,926</title><circle fill-opacity="0.7" fill="#e15759" r="31.629991567092045"></circle><text clip-path="circle(31.629991567092045)"><tspan x="0" y="-0.15000000000000002em">deadpool-runtime</tspan><tspan x="0" y="0.85em" fill-opacity="0.7">12,243,926</tspan></text></g><g transform="translate(900.8659424663304,413.8579777840947)"><title>async-signal
6,013,963</title><circle fill-opacity="0.7" fill="#76b7b2" r="22.167621830882524"></circle><text clip-path="circle(22.167621830882524)"><tspan x="0" y="-0.15000000000000002em">async-signal</tspan><tspan x="0" y="0.85em" fill-opacity="0.7">6,013,963</tspan></text></g><g transform="translate(939.2169004449182,378.7446115640122)"><title>tonic-health
8,870,770</title><circle fill-opacity="0.7" fill="#59a14f" r="26.922748088031653"></circle><text clip-path="circle(26.922748088031653)"><tspan x="0" y="-0.15000000000000002em">tonic-health</tspan><tspan x="0" y="0.85em" fill-opacity="0.7">8,870,770</tspan></text></g><g transform="translate(440.04937607890804,916.0045718707503)"><title>ordered-stream
8,102,589</title><circle fill-opacity="0.7" fill="#edc949" r="25.7306426376055"></circle><text clip-path="circle(25.7306426376055)"><tspan x="0" y="-0.15000000000000002em">ordered-stream</tspan><tspan x="0" y="0.85em" fill-opacity="0.7">8,102,589</tspan></text></g><g transform="translate(405.20286063631244,89.8939908338537)"><title>oneshot
5,260,799</title><circle fill-opacity="0.7" fill="#af7aa1" r="20.733116239105765"></circle><text clip-path="circle(20.733116239105765)"><tspan x="0" y="-0.15000000000000002em">oneshot</tspan><tspan x="0" y="0.85em" fill-opacity="0.7">5,260,799</tspan></text></g><g transform="translate(113.52781966776973,342.2211210847406)"><title>async-graphql
6,838,312</title><circle fill-opacity="0.7" fill="#ff9da7" r="23.638133655505058"></circle><text clip-path="circle(23.638133655505058)"><tspan x="0" y="-0.15000000000000002em">async-graphql</tspan><tspan x="0" y="0.85em" fill-opacity="0.7">6,838,312</tspan></text></g><g transform="translate(599.1499002063752,81.0350204801523)"><title>async-graphql-derive
6,695,802</title><circle fill-opacity="0.7" fill="#9c755f" r="23.390528219877048"></circle><text clip-path="circle(23.390528219877048)"><tspan x="0" y="-0.15000000000000002em">async-graphql-derive</tspan><tspan x="0" y="0.85em" fill-opacity="0.7">6,695,802</tspan></text></g><g transform="translate(871.7383995009594,269.96225438132876)"><title>async-graphql-parser
6,603,840</title><circle fill-opacity="0.7" fill="#bab0ab" r="23.22934688127935"></circle><text clip-path="circle(23.22934688127935)"><tspan x="0" y="-0.15000000000000002em">async-graphql-parser</tspan><tspan x="0" y="0.85em" fill-opacity="0.7">6,603,840</tspan></text></g><g transform="translate(95.7996662806388,397.07060239662064)"><title>async-graphql-value
6,483,207</title><circle fill-opacity="0.7" fill="#4e79a7" r="23.01620262191847"></circle><text clip-path="circle(23.01620262191847)"><tspan x="0" y="-0.15000000000000002em">async-graphql-value</tspan><tspan x="0" y="0.85em" fill-opacity="0.7">6,483,207</tspan></text></g><g transform="translate(78.54927567733938,555.42160436382)"><title>soketto
10,100,197</title><circle fill-opacity="0.7" fill="#f28e2c" r="28.72788478492776"></circle><text clip-path="circle(28.72788478492776)"><tspan x="0" y="-0.15000000000000002em">soketto</tspan><tspan x="0" y="0.85em" fill-opacity="0.7">10,100,197</tspan></text></g><g transform="translate(73.65854875010052,616.8751410732679)"><title>tokio-postgres
11,023,896</title><circle fill-opacity="0.7" fill="#e15759" r="30.012783939016497"></circle><text clip-path="circle(30.012783939016497)"><tspan x="0" y="-0.15000000000000002em">tokio-postgres</tspan><tspan x="0" y="0.85em" fill-opacity="0.7">11,023,896</tspan></text></g><g transform="translate(900.4615979011141,712.2179400221044)"><title>async-attributes
9,832,347</title><circle fill-opacity="0.7" fill="#76b7b2" r="28.34440381361227"></circle><text clip-path="circle(28.34440381361227)"><tspan x="0" y="-0.15000000000000002em">async-attributes</tspan><tspan x="0" y="0.85em" fill-opacity="0.7">9,832,347</tspan></text></g><g transform="translate(285.71976369391643,137.54795791984844)"><title>scc
1,768,924</title><circle fill-opacity="0.7" fill="#59a14f" r="12.022459291369664"></circle><text clip-path="circle(12.022459291369664)"><tspan x="0" y="-0.15000000000000002em">scc</tspan><tspan x="0" y="0.85em" fill-opacity="0.7">1,768,924</tspan></text></g><g transform="translate(138.45546502610665,741.6815474234257)"><title>asynchronous-codec
9,853,459</title><circle fill-opacity="0.7" fill="#edc949" r="28.374818025653745"></circle><text clip-path="circle(28.374818025653745)"><tspan x="0" y="-0.15000000000000002em">asynchronous-codec</tspan><tspan x="0" y="0.85em" fill-opacity="0.7">9,853,459</tspan></text></g><g transform="translate(769.6680801510267,151.69830752694673)"><title>async-graphql-axum
3,489,897</title><circle fill-opacity="0.7" fill="#af7aa1" r="16.886709518314188"></circle><text clip-path="circle(16.886709518314188)"><tspan x="0" y="-0.15000000000000002em">async-graphql-axum</tspan><tspan x="0" y="0.85em" fill-opacity="0.7">3,489,897</tspan></text></g><g transform="translate(672.8258145979446,87.46690896561785)"><title>console-subscriber
6,581,736</title><circle fill-opacity="0.7" fill="#ff9da7" r="23.190438317371974"></circle><text clip-path="circle(23.190438317371974)"><tspan x="0" y="-0.15000000000000002em">console-subscriber</tspan><tspan x="0" y="0.85em" fill-opacity="0.7">6,581,736</tspan></text></g><g transform="translate(233.6441363077452,847.5589480678377)"><title>console-api
6,607,780</title><circle fill-opacity="0.7" fill="#9c755f" r="23.23627542433291"></circle><text clip-path="circle(23.23627542433291)"><tspan x="0" y="-0.15000000000000002em">console-api</tspan><tspan x="0" y="0.85em" fill-opacity="0.7">6,607,780</tspan></text></g><g transform="translate(69.13002546820684,358.6942753472516)"><title>maybe-async
5,299,909</title><circle fill-opacity="0.7" fill="#bab0ab" r="20.810040932403187"></circle><text clip-path="circle(20.810040932403187)"><tspan x="0" y="-0.15000000000000002em">maybe-async</tspan><tspan x="0" y="0.85em" fill-opacity="0.7">5,299,909</tspan></text></g><g transform="translate(351.60724043107916,919.0442849713702)"><title>opentelemetry-jaeger
9,046,404</title><circle fill-opacity="0.7" fill="#4e79a7" r="27.187965958438312"></circle><text clip-path="circle(27.187965958438312)"><tspan x="0" y="-0.15000000000000002em">opentelemetry-jaeger</tspan><tspan x="0" y="0.85em" fill-opacity="0.7">9,046,404</tspan></text></g><g transform="translate(418.36471329794745,45.7361001305303)"><title>netlink-proto
6,161,234</title><circle fill-opacity="0.7" fill="#f28e2c" r="22.437402551748374"></circle><text clip-path="circle(22.437402551748374)"><tspan x="0" y="-0.15000000000000002em">netlink-proto</tspan><tspan x="0" y="0.85em" fill-opacity="0.7">6,161,234</tspan></text></g><g transform="translate(958.352617206037,427.09390024126924)"><title>tokio-socks
6,014,406</title><circle fill-opacity="0.7" fill="#e15759" r="22.168438270527485"></circle><text clip-path="circle(22.168438270527485)"><tspan x="0" y="-0.15000000000000002em">tokio-socks</tspan><tspan x="0" y="0.85em" fill-opacity="0.7">6,014,406</tspan></text></g><g transform="translate(361.50722490361625,74.80895195613397)"><title>tokio-serde
6,243,096</title><circle fill-opacity="0.7" fill="#76b7b2" r="22.585969358785633"></circle><text clip-path="circle(22.585969358785633)"><tspan x="0" y="-0.15000000000000002em">tokio-serde</tspan><tspan x="0" y="0.85em" fill-opacity="0.7">6,243,096</tspan></text></g><g transform="translate(639.3962963103068,46.84767555828944)"><title>actix
8,600,209</title><circle fill-opacity="0.7" fill="#59a14f" r="26.5089930210343"></circle><text clip-path="circle(26.5089930210343)"><tspan x="0" y="-0.15000000000000002em">actix</tspan><tspan x="0" y="0.85em" fill-opacity="0.7">8,600,209</tspan></text></g><g transform="translate(397.0747231252883,931.5331549606881)"><title>tokio-metrics
3,560,371</title><circle fill-opacity="0.7" fill="#edc949" r="17.056360065127542"></circle><text clip-path="circle(17.056360065127542)"><tspan x="0" y="-0.15000000000000002em">tokio-metrics</tspan><tspan x="0" y="0.85em" fill-opacity="0.7">3,560,371</tspan></text></g><g transform="translate(474.8857975560136,953.8734709538023)"><title>isahc
6,371,642</title><circle fill-opacity="0.7" fill="#af7aa1" r="22.817308339215913"></circle><text clip-path="circle(22.817308339215913)"><tspan x="0" y="-0.15000000000000002em">isahc</tspan><tspan x="0" y="0.85em" fill-opacity="0.7">6,371,642</tspan></text></g><g transform="translate(859.6224202001213,224.04309578529143)"><title>smol
5,580,693</title><circle fill-opacity="0.7" fill="#ff9da7" r="21.35417483490976"></circle><text clip-path="circle(21.35417483490976)"><tspan x="0" y="-0.15000000000000002em">smol</tspan><tspan x="0" y="0.85em" fill-opacity="0.7">5,580,693</tspan></text></g><g transform="translate(558.8999446838862,44.57400502223936)"><title>actix-tls
9,602,586</title><circle fill-opacity="0.7" fill="#9c755f" r="28.01127200190672"></circle><text clip-path="circle(28.01127200190672)"><tspan x="0" y="-0.15000000000000002em">actix-tls</tspan><tspan x="0" y="0.85em" fill-opacity="0.7">9,602,586</tspan></text></g><g transform="translate(297.9336872321147,109.57860143259444)"><title>async-object-pool
2,974,611</title><circle fill-opacity="0.7" fill="#bab0ab" r="15.590276507712503"></circle><text clip-path="circle(15.590276507712503)"><tspan x="0" y="-0.15000000000000002em">async-object-pool</tspan><tspan x="0" y="0.85em" fill-opacity="0.7">2,974,611</tspan></text></g><g transform="translate(257.49019608609444,122.51492689354353)"><title>async_io_stream
3,559,045</title><circle fill-opacity="0.7" fill="#4e79a7" r="17.053183592838053"></circle><text clip-path="circle(17.053183592838053)"><tspan x="0" y="-0.15000000000000002em">async_io_stream</tspan><tspan x="0" y="0.85em" fill-opacity="0.7">3,559,045</tspan></text></g><g transform="translate(774.7359285965563,869.172716642212)"><title>pollster
3,791,122</title><circle fill-opacity="0.7" fill="#f28e2c" r="17.600402846919977"></circle><text clip-path="circle(17.600402846919977)"><tspan x="0" y="-0.15000000000000002em">pollster</tspan><tspan x="0" y="0.85em" fill-opacity="0.7">3,791,122</tspan></text></g><g transform="translate(802.5717180784854,166.1485454529476)"><title>ws_stream_wasm
3,189,264</title><circle fill-opacity="0.7" fill="#e15759" r="16.14298946626981"></circle><text clip-path="circle(16.14298946626981)"><tspan x="0" y="-0.15000000000000002em">ws_stream_wasm</tspan><tspan x="0" y="0.85em" fill-opacity="0.7">3,189,264</tspan></text></g><g transform="translate(164.15746932718804,783.873116133758)"><title>sea-orm
4,019,008</title><circle fill-opacity="0.7" fill="#76b7b2" r="18.1216677410219"></circle><text clip-path="circle(18.1216677410219)"><tspan x="0" y="-0.15000000000000002em">sea-orm</tspan><tspan x="0" y="0.85em" fill-opacity="0.7">4,019,008</tspan></text></g><g transform="translate(654.8103534264452,928.9049092559226)"><title>sea-orm-macros
4,002,786</title><circle fill-opacity="0.7" fill="#59a14f" r="18.085058342238714"></circle><text clip-path="circle(18.085058342238714)"><tspan x="0" y="-0.15000000000000002em">sea-orm-macros</tspan><tspan x="0" y="0.85em" fill-opacity="0.7">4,002,786</tspan></text></g><g transform="translate(905.7542404426506,287.7130435440587)"><title>fred
1,831,219</title><circle fill-opacity="0.7" fill="#edc949" r="12.232321046406424"></circle><text clip-path="circle(12.232321046406424)"><tspan x="0" y="-0.15000000000000002em">fred</tspan><tspan x="0" y="0.85em" fill-opacity="0.7">1,831,219</tspan></text></g><g transform="translate(57.366177523124634,413.45640499167234)"><title>deadpool-postgres
3,077,392</title><circle fill-opacity="0.7" fill="#af7aa1" r="15.857332705156807"></circle><text clip-path="circle(15.857332705156807)"><tspan x="0" y="-0.15000000000000002em">deadpool-postgres</tspan><tspan x="0" y="0.85em" fill-opacity="0.7">3,077,392</tspan></text></g><g transform="translate(90.69316976880765,308.49005544034696)"><title>salvo_core
2,463,586</title><circle fill-opacity="0.7" fill="#ff9da7" r="14.188046127928246"></circle><text clip-path="circle(14.188046127928246)"><tspan x="0" y="-0.15000000000000002em">salvo_core</tspan><tspan x="0" y="0.85em" fill-opacity="0.7">2,463,586</tspan></text></g><g transform="translate(602.0686518808834,938.3720988983866)"><title>salvo_extra
2,377,480</title><circle fill-opacity="0.7" fill="#9c755f" r="13.937894220014913"></circle><text clip-path="circle(13.937894220014913)"><tspan x="0" y="-0.15000000000000002em">salvo_extra</tspan><tspan x="0" y="0.85em" fill-opacity="0.7">2,377,480</tspan></text></g><g transform="translate(203.42688393006767,821.3709433221364)"><title>salvo
2,345,123</title><circle fill-opacity="0.7" fill="#bab0ab" r="13.842723400669806"></circle><text clip-path="circle(13.842723400669806)"><tspan x="0" y="-0.15000000000000002em">salvo</tspan><tspan x="0" y="0.85em" fill-opacity="0.7">2,345,123</tspan></text></g><g transform="translate(325.50735131664095,90.89046564869693)"><title>salvo_macros
2,376,612</title><circle fill-opacity="0.7" fill="#4e79a7" r="13.93534967776532"></circle><text clip-path="circle(13.93534967776532)"><tspan x="0" y="-0.15000000000000002em">salvo_macros</tspan><tspan x="0" y="0.85em" fill-opacity="0.7">2,376,612</tspan></text></g><g transform="translate(300.95732004079326,81.96737300794206)"><title>futures-bounded
1,053,683</title><circle fill-opacity="0.7" fill="#f28e2c" r="9.278840612512331"></circle><text clip-path="circle(9.278840612512331)"><tspan x="0" y="-0.15000000000000002em">futures-bounded</tspan><tspan x="0" y="0.85em" fill-opacity="0.7">1,053,683</tspan></text></g><g transform="translate(834.3653082031453,190.59408980544907)"><title>actix-files
3,813,532</title><circle fill-opacity="0.7" fill="#e15759" r="17.652345763159136"></circle><text clip-path="circle(17.652345763159136)"><tspan x="0" y="-0.15000000000000002em">actix-files</tspan><tspan x="0" y="0.85em" fill-opacity="0.7">3,813,532</tspan></text></g><g transform="translate(45.341342916778444,523.5872751522656)"><title>actix-multipart
2,526,132</title><circle fill-opacity="0.7" fill="#76b7b2" r="14.367021716903757"></circle><text clip-path="circle(14.367021716903757)"><tspan x="0" y="-0.15000000000000002em">actix-multipart</tspan><tspan x="0" y="0.85em" fill-opacity="0.7">2,526,132</tspan></text></g><g transform="translate(884.9559973374754,755.4062163741048)"><title>opentelemetry-prometheus
2,621,532</title><circle fill-opacity="0.7" fill="#59a14f" r="14.635794728015474"></circle><text clip-path="circle(14.635794728015474)"><tspan x="0" y="-0.15000000000000002em">opentelemetry-prometheus</tspan><tspan x="0" y="0.85em" fill-opacity="0.7">2,621,532</tspan></text></g><g transform="translate(838.0279232915409,150.49287330706017)"><title>async_once
4,753,731</title><circle fill-opacity="0.7" fill="#edc949" r="19.70861153068364"></circle><text clip-path="circle(19.70861153068364)"><tspan x="0" y="-0.15000000000000002em">async_once</tspan><tspan x="0" y="0.85em" fill-opacity="0.7">4,753,731</tspan></text></g><g transform="translate(768.1242581693298,120.11897323100561)"><title>sea-orm-cli
1,710,764</title><circle fill-opacity="0.7" fill="#af7aa1" r="11.823165787553128"></circle><text clip-path="circle(11.823165787553128)"><tspan x="0" y="-0.15000000000000002em">sea-orm-cli</tspan><tspan x="0" y="0.85em" fill-opacity="0.7">1,710,764</tspan></text></g><g transform="translate(272.336514545155,95.87521223372806)"><title>actix-multipart-derive
1,358,798</title><circle fill-opacity="0.7" fill="#ff9da7" r="10.536980529254285"></circle><text clip-path="circle(10.536980529254285)"><tspan x="0" y="-0.15000000000000002em">actix-multipart-derive</tspan><tspan x="0" y="0.85em" fill-opacity="0.7">1,358,798</tspan></text></g><g transform="translate(174.52223920658497,815.9303459904008)"><title>capnp-futures
1,962,227</title><circle fill-opacity="0.7" fill="#9c755f" r="12.662321951893508"></circle><text clip-path="circle(12.662321951893508)"><tspan x="0" y="-0.15000000000000002em">capnp-futures</tspan><tspan x="0" y="0.85em" fill-opacity="0.7">1,962,227</tspan></text></g><g transform="translate(935.9785837850486,337.0982535966948)"><title>cucumber
1,745,370</title><circle fill-opacity="0.7" fill="#bab0ab" r="11.942148890423606"></circle><text clip-path="circle(11.942148890423606)"><tspan x="0" y="-0.15000000000000002em">cucumber</tspan><tspan x="0" y="0.85em" fill-opacity="0.7">1,745,370</tspan></text></g><g transform="translate(109.60194710897724,716.5228333608)"><title>trait-variant
599,624</title><circle fill-opacity="0.7" fill="#4e79a7" r="6.999680734283739"></circle><text clip-path="circle(6.999680734283739)"><tspan x="0" y="-0.15000000000000002em">trait-variant</tspan><tspan x="0" y="0.85em" fill-opacity="0.7">599,624</tspan></text></g><g transform="translate(950.8985577779624,623.3079562485827)"><title>sea-orm-migration
1,675,090</title><circle fill-opacity="0.7" fill="#f28e2c" r="11.699244062231386"></circle><text clip-path="circle(11.699244062231386)"><tspan x="0" y="-0.15000000000000002em">sea-orm-migration</tspan><tspan x="0" y="0.85em" fill-opacity="0.7">1,675,090</tspan></text></g><g transform="translate(973.6662380858957,535.3161027108252)"><title>tcp-stream
2,807,868</title><circle fill-opacity="0.7" fill="#e15759" r="15.147015567688662"></circle><text clip-path="circle(15.147015567688662)"><tspan x="0" y="-0.15000000000000002em">tcp-stream</tspan><tspan x="0" y="0.85em" fill-opacity="0.7">2,807,868</tspan></text></g><g transform="translate(378.8715323694439,38.428294806287056)"><title>pinky-swear
2,687,585</title><circle fill-opacity="0.7" fill="#76b7b2" r="14.819031879919892"></circle><text clip-path="circle(14.819031879919892)"><tspan x="0" y="-0.15000000000000002em">pinky-swear</tspan><tspan x="0" y="0.85em" fill-opacity="0.7">2,687,585</tspan></text></g><g transform="translate(709.8215477142047,79.93937870816524)"><title>manual_future
1,662,778</title><circle fill-opacity="0.7" fill="#59a14f" r="11.65616973563017"></circle><text clip-path="circle(11.65616973563017)"><tspan x="0" y="-0.15000000000000002em">manual_future</tspan><tspan x="0" y="0.85em" fill-opacity="0.7">1,662,778</tspan></text></g><g transform="translate(941.4156594305498,682.3153614625012)"><title>quicksink
4,633,314</title><circle fill-opacity="0.7" fill="#edc949" r="19.4573904859069"></circle><text clip-path="circle(19.4573904859069)"><tspan x="0" y="-0.15000000000000002em">quicksink</tspan><tspan x="0" y="0.85em" fill-opacity="0.7">4,633,314</tspan></text></g><g transform="translate(71.71400689509431,662.5232716069854)"><title>executor-trait
1,995,608</title><circle fill-opacity="0.7" fill="#af7aa1" r="12.769572147371232"></circle><text clip-path="circle(12.769572147371232)"><tspan x="0" y="-0.15000000000000002em">executor-trait</tspan><tspan x="0" y="0.85em" fill-opacity="0.7">1,995,608</tspan></text></g><g transform="translate(226.54826540633417,133.09363394798612)"><title>reactor-trait
1,986,370</title><circle fill-opacity="0.7" fill="#ff9da7" r="12.739981630436224"></circle><text clip-path="circle(12.739981630436224)"><tspan x="0" y="-0.15000000000000002em">reactor-trait</tspan><tspan x="0" y="0.85em" fill-opacity="0.7">1,986,370</tspan></text></g><g transform="translate(892.2706611931985,238.49048702236996)"><title>async-once-cell
1,601,866</title><circle fill-opacity="0.7" fill="#9c755f" r="11.440679509995165"></circle><text clip-path="circle(11.440679509995165)"><tspan x="0" y="-0.15000000000000002em">async-once-cell</tspan><tspan x="0" y="0.85em" fill-opacity="0.7">1,601,866</tspan></text></g><g transform="translate(797.4370002184222,134.80772089525055)"><title>async-reactor-trait
1,976,565</title><circle fill-opacity="0.7" fill="#bab0ab" r="12.708499567267076"></circle><text clip-path="circle(12.708499567267076)"><tspan x="0" y="-0.15000000000000002em">async-reactor-trait</tspan><tspan x="0" y="0.85em" fill-opacity="0.7">1,976,565</tspan></text></g><g transform="translate(600.3636509660138,31.00598137516522)"><title>async-global-executor-trait
1,976,636</title><circle fill-opacity="0.7" fill="#4e79a7" r="12.708727815608652"></circle><text clip-path="circle(12.708727815608652)"><tspan x="0" y="-0.15000000000000002em">async-global-executor-trait</tspan><tspan x="0" y="0.85em" fill-opacity="0.7">1,976,636</tspan></text></g><g transform="translate(631.8674432218511,973.9853522140531)"><title>tokio-fs
10,715,940</title><circle fill-opacity="0.7" fill="#f28e2c" r="29.590606362463827"></circle><text clip-path="circle(29.590606362463827)"><tspan x="0" y="-0.15000000000000002em">tokio-fs</tspan><tspan x="0" y="0.85em" fill-opacity="0.7">10,715,940</tspan></text></g><g transform="translate(201.9007956035719,127.78376136651337)"><title>qualifier_attr
1,119,861</title><circle fill-opacity="0.7" fill="#e15759" r="9.565788804520903"></circle><text clip-path="circle(9.565788804520903)"><tspan x="0" y="-0.15000000000000002em">qualifier_attr</tspan><tspan x="0" y="0.85em" fill-opacity="0.7">1,119,861</tspan></text></g><g transform="translate(943.07695680496,299.04085005032255)"><title>awc
6,969,857</title><circle fill-opacity="0.7" fill="#76b7b2" r="23.864407812544833"></circle><text clip-path="circle(23.864407812544833)"><tspan x="0" y="-0.15000000000000002em">awc</tspan><tspan x="0" y="0.85em" fill-opacity="0.7">6,969,857</tspan></text></g><g transform="translate(237.4368574504087,891.1986879228773)"><title>http-client
3,817,183</title><circle fill-opacity="0.7" fill="#59a14f" r="17.660793744752088"></circle><text clip-path="circle(17.660793744752088)"><tspan x="0" y="-0.15000000000000002em">http-client</tspan><tspan x="0" y="0.85em" fill-opacity="0.7">3,817,183</tspan></text></g><g transform="translate(421.531249830782,952.3483906443587)"><title>async-scoped
1,807,195</title><circle fill-opacity="0.7" fill="#edc949" r="12.151817435766018"></circle><text clip-path="circle(12.151817435766018)"><tspan x="0" y="-0.15000000000000002em">async-scoped</tspan><tspan x="0" y="0.85em" fill-opacity="0.7">1,807,195</tspan></text></g><g transform="translate(39.756114023973225,582.2559829356013)"><title>actix-web-actors
2,953,470</title><circle fill-opacity="0.7" fill="#af7aa1" r="15.534776520595106"></circle><text clip-path="circle(15.534776520595106)"><tspan x="0" y="-0.15000000000000002em">actix-web-actors</tspan><tspan x="0" y="0.85em" fill-opacity="0.7">2,953,470</tspan></text></g><g transform="translate(970.8435059253229,458.93977510053855)"><title>rusty_pool
1,020,667</title><circle fill-opacity="0.7" fill="#ff9da7" r="9.132312511248516"></circle><text clip-path="circle(9.132312511248516)"><tspan x="0" y="-0.15000000000000002em">rusty_pool</tspan><tspan x="0" y="0.85em" fill-opacity="0.7">1,020,667</tspan></text></g><g transform="translate(58.60060176722942,319.52585191243975)"><title>async-h1
3,471,362</title><circle fill-opacity="0.7" fill="#9c755f" r="16.841806781781518"></circle><text clip-path="circle(16.841806781781518)"><tspan x="0" y="-0.15000000000000002em">async-h1</tspan><tspan x="0" y="0.85em" fill-opacity="0.7">3,471,362</tspan></text></g><g transform="translate(44.46002499670885,385.0824454519865)"><title>etcd-client
1,883,832</title><circle fill-opacity="0.7" fill="#bab0ab" r="12.406800902787834"></circle><text clip-path="circle(12.406800902787834)"><tspan x="0" y="-0.15000000000000002em">etcd-client</tspan><tspan x="0" y="0.85em" fill-opacity="0.7">1,883,832</tspan></text></g></g></svg>
